codigo,links
10000000,https://www.contratos.gov.co/consultas/resultadosConsulta.do?&ctl00$ContentPlaceHolder1$hidIDProducto=-1&ctl00$ContentPlaceHolder1$hidIDProductoNoIngresado=-1&ctl00$ContentPlaceHolder1$hidIDRubro=-1&ctl00$ContentPlaceHolder1$hidIdEmpresaC=0&ctl00$ContentPlaceHolder1$hidIdEmpresaVenta=-1&ctl00$ContentPlaceHolder1$hidIdOrgC=-1&ctl00$ContentPlaceHolder1$hidIdOrgV=-1&ctl00$ContentPlaceHolder1$hidNombreDemandante=-1&ctl00$ContentPlaceHolder1$hidNombreProducto=-1&ctl00$ContentPlaceHolder1$hidNombreProveedor=-1&ctl00$ContentPlaceHolder1$hidRangoMaximoFecha=&ctl00$ContentPlaceHolder1$hidRedir=&cuantia=0&departamento=&desdeFomulario=true&entidad=&estado=1&fechaFinal=&fechaInicial=&findEntidad=&municipio=0&numeroProceso=&objeto=10000000&paginaObjetivo=1&registrosXPagina=500&tipoProceso=
11000000,https://www.contratos.gov.co/consultas/resultadosConsulta.do?&ctl00$ContentPlaceHolder1$hidIDProducto=-1&ctl00$ContentPlaceHolder1$hidIDProductoNoIngresado=-1&ctl00$ContentPlaceHolder1$hidIDRubro=-1&ctl00$ContentPlaceHolder1$hidIdEmpresaC=0&ctl00$ContentPlaceHolder1$hidIdEmpresaVenta=-1&ctl00$ContentPlaceHolder1$hidIdOrgC=-1&ctl00$ContentPlaceHolder1$hidIdOrgV=-1&ctl00$ContentPlaceHolder1$hidNombreDemandante=-1&ctl00$ContentPlaceHolder1$hidNombreProducto=-1&ctl00$ContentPlaceHolder1$hidNombreProveedor=-1&ctl00$ContentPlaceHolder1$hidRangoMaximoFecha=&ctl00$ContentPlaceHolder1$hidRedir=&cuantia=0&departamento=&desdeFomulario=true&entidad=&estado=1&fechaFinal=&fechaInicial=&findEntidad=&municipio=0&numeroProceso=&objeto=11000000&paginaObjetivo=1&registrosXPagina=500&tipoProceso=
12000000,https://www.contratos.gov.co/consultas/resultadosConsulta.do?&ctl00$ContentPlaceHolder1$hidIDProducto=-1&ctl00$ContentPlaceHolder1$hidIDProductoNoIngresado=-1&ctl00$ContentPlaceHolder1$hidIDRubro=-1&ctl00$ContentPlaceHolder1$hidIdEmpresaC=0&ctl00$ContentPlaceHolder1$hidIdEmpresaVenta=-1&ctl00$ContentPlaceHolder1$hidIdOrgC=-1&ctl00$ContentPlaceHolder1$hidIdOrgV=-1&ctl00$ContentPlaceHolder1$hidNombreDemandante=-1&ctl00$ContentPlaceHolder1$hidNombreProducto=-1&ctl00$ContentPlaceHolder1$hidNombreProveedor=-1&ctl00$ContentPlaceHolder1$hidRangoMaximoFecha=&ctl00$ContentPlaceHolder1$hidRedir=&cuantia=0&departamento=&desdeFomulario=true&entidad=&estado=1&fechaFinal=&fechaInicial=&findEntidad=&municipio=0&numeroProceso=&objeto=12000000&paginaObjetivo=1&registrosXPagina=500&tipoProceso=
15000000,https://www.contratos.gov.co/consultas/resultadosConsulta.do?&ctl00$ContentPlaceHolder1$hidIDProducto=-1&ctl00$ContentPlaceHolder1$hidIDProductoNoIngresado=-1&ctl00$ContentPlaceHolder1$hidIDRubro=-1&ctl00$ContentPlaceHolder1$hidIdEmpresaC=0&ctl00$ContentPlaceHolder1$hidIdEmpresaVenta=-1&ctl00$ContentPlaceHolder1$hidIdOrgC=-1&ctl00$ContentPlaceHolder1$hidIdOrgV=-1&ctl00$ContentPlaceHolder1$hidNombreDemandante=-1&ctl00$ContentPlaceHolder1$hidNombreProducto=-1&ctl00$ContentPlaceHolder1$hidNombreProveedor=-1&ctl00$ContentPlaceHolder1$hidRangoMaximoFecha=&ctl00$ContentPlaceHolder1$hidRedir=&cuantia=0&departamento=&desdeFomulario=true&entidad=&estado=1&fechaFinal=&fechaInicial=&findEntidad=&municipio=0&numeroProceso=&objeto=15000000&paginaObjetivo=1&registrosXPagina=500&tipoProceso=
13000000,https://www.contratos.gov.co/consultas/resultadosConsulta.do?&ctl00$ContentPlaceHolder1$hidIDProducto=-1&ctl00$ContentPlaceHolder1$hidIDProductoNoIngresado=-1&ctl00$ContentPlaceHolder1$hidIDRubro=-1&ctl00$ContentPlaceHolder1$hidIdEmpresaC=0&ctl00$ContentPlaceHolder1$hidIdEmpresaVenta=-1&ctl00$ContentPlaceHolder1$hidIdOrgC=-1&ctl00$ContentPlaceHolder1$hidIdOrgV=-1&ctl00$ContentPlaceHolder1$hidNombreDemandante=-1&ctl00$ContentPlaceHolder1$hidNombreProducto=-1&ctl00$ContentPlaceHolder1$hidNombreProveedor=-1&ctl00$ContentPlaceHolder1$hidRangoMaximoFecha=&ctl00$ContentPlaceHolder1$hidRedir=&cuantia=0&departamento=&desdeFomulario=true&entidad=&estado=1&fechaFinal=&fechaInicial=&findEntidad=&municipio=0&numeroProceso=&objeto=13000000&paginaObjetivo=1&registrosXPagina=500&tipoProceso=
14000000,https://www.contratos.gov.co/consultas/resultadosConsulta.do?&ctl00$ContentPlaceHolder1$hidIDProducto=-1&ctl00$ContentPlaceHolder1$hidIDProductoNoIngresado=-1&ctl00$ContentPlaceHolder1$hidIDRubro=-1&ctl00$ContentPlaceHolder1$hidIdEmpresaC=0&ctl00$ContentPlaceHolder1$hidIdEmpresaVenta=-1&ctl00$ContentPlaceHolder1$hidIdOrgC=-1&ctl00$ContentPlaceHolder1$hidIdOrgV=-1&ctl00$ContentPlaceHolder1$hidNombreDemandante=-1&ctl00$ContentPlaceHolder1$hidNombreProducto=-1&ctl00$ContentPlaceHolder1$hidNombreProveedor=-1&ctl00$ContentPlaceHolder1$hidRangoMaximoFecha=&ctl00$ContentPlaceHolder1$hidRedir=&cuantia=0&departamento=&desdeFomulario=true&entidad=&estado=1&fechaFinal=&fechaInicial=&findEntidad=&municipio=0&numeroProceso=&objeto=14000000&paginaObjetivo=1&registrosXPagina=500&tipoProceso=
27000000,https://www.contratos.gov.co/consultas/resultadosConsulta.do?&ctl00$ContentPlaceHolder1$hidIDProducto=-1&ctl00$ContentPlaceHolder1$hidIDProductoNoIngresado=-1&ctl00$ContentPlaceHolder1$hidIDRubro=-1&ctl00$ContentPlaceHolder1$hidIdEmpresaC=0&ctl00$ContentPlaceHolder1$hidIdEmpresaVenta=-1&ctl00$ContentPlaceHolder1$hidIdOrgC=-1&ctl00$ContentPlaceHolder1$hidIdOrgV=-1&ctl00$ContentPlaceHolder1$hidNombreDemandante=-1&ctl00$ContentPlaceHolder1$hidNombreProducto=-1&ctl00$ContentPlaceHolder1$hidNombreProveedor=-1&ctl00$ContentPlaceHolder1$hidRangoMaximoFecha=&ctl00$ContentPlaceHolder1$hidRedir=&cuantia=0&departamento=&desdeFomulario=true&entidad=&estado=1&fechaFinal=&fechaInicial=&findEntidad=&municipio=0&numeroProceso=&objeto=27000000&paginaObjetivo=1&registrosXPagina=500&tipoProceso=
20000000,https://www.contratos.gov.co/consultas/resultadosConsulta.do?&ctl00$ContentPlaceHolder1$hidIDProducto=-1&ctl00$ContentPlaceHolder1$hidIDProductoNoIngresado=-1&ctl00$ContentPlaceHolder1$hidIDRubro=-1&ctl00$ContentPlaceHolder1$hidIdEmpresaC=0&ctl00$ContentPlaceHolder1$hidIdEmpresaVenta=-1&ctl00$ContentPlaceHolder1$hidIdOrgC=-1&ctl00$ContentPlaceHolder1$hidIdOrgV=-1&ctl00$ContentPlaceHolder1$hidNombreDemandante=-1&ctl00$ContentPlaceHolder1$hidNombreProducto=-1&ctl00$ContentPlaceHolder1$hidNombreProveedor=-1&ctl00$ContentPlaceHolder1$hidRangoMaximoFecha=&ctl00$ContentPlaceHolder1$hidRedir=&cuantia=0&departamento=&desdeFomulario=true&entidad=&estado=1&fechaFinal=&fechaInicial=&findEntidad=&municipio=0&numeroProceso=&objeto=20000000&paginaObjetivo=1&registrosXPagina=500&tipoProceso=
21000000,https://www.contratos.gov.co/consultas/resultadosConsulta.do?&ctl00$ContentPlaceHolder1$hidIDProducto=-1&ctl00$ContentPlaceHolder1$hidIDProductoNoIngresado=-1&ctl00$ContentPlaceHolder1$hidIDRubro=-1&ctl00$ContentPlaceHolder1$hidIdEmpresaC=0&ctl00$ContentPlaceHolder1$hidIdEmpresaVenta=-1&ctl00$ContentPlaceHolder1$hidIdOrgC=-1&ctl00$ContentPlaceHolder1$hidIdOrgV=-1&ctl00$ContentPlaceHolder1$hidNombreDemandante=-1&ctl00$ContentPlaceHolder1$hidNombreProducto=-1&ctl00$ContentPlaceHolder1$hidNombreProveedor=-1&ctl00$ContentPlaceHolder1$hidRangoMaximoFecha=&ctl00$ContentPlaceHolder1$hidRedir=&cuantia=0&departamento=&desdeFomulario=true&entidad=&estado=1&fechaFinal=&fechaInicial=&findEntidad=&municipio=0&numeroProceso=&objeto=21000000&paginaObjetivo=1&registrosXPagina=500&tipoProceso=
22000000,https://www.contratos.gov.co/consultas/resultadosConsulta.do?&ctl00$ContentPlaceHolder1$hidIDProducto=-1&ctl00$ContentPlaceHolder1$hidIDProductoNoIngresado=-1&ctl00$ContentPlaceHolder1$hidIDRubro=-1&ctl00$ContentPlaceHolder1$hidIdEmpresaC=0&ctl00$ContentPlaceHolder1$hidIdEmpresaVenta=-1&ctl00$ContentPlaceHolder1$hidIdOrgC=-1&ctl00$ContentPlaceHolder1$hidIdOrgV=-1&ctl00$ContentPlaceHolder1$hidNombreDemandante=-1&ctl00$ContentPlaceHolder1$hidNombreProducto=-1&ctl00$ContentPlaceHolder1$hidNombreProveedor=-1&ctl00$ContentPlaceHolder1$hidRangoMaximoFecha=&ctl00$ContentPlaceHolder1$hidRedir=&cuantia=0&departamento=&desdeFomulario=true&entidad=&estado=1&fechaFinal=&fechaInicial=&findEntidad=&municipio=0&numeroProceso=&objeto=22000000&paginaObjetivo=1&registrosXPagina=500&tipoProceso=
26000000,https://www.contratos.gov.co/consultas/resultadosConsulta.do?&ctl00$ContentPlaceHolder1$hidIDProducto=-1&ctl00$ContentPlaceHolder1$hidIDProductoNoIngresado=-1&ctl00$ContentPlaceHolder1$hidIDRubro=-1&ctl00$ContentPlaceHolder1$hidIdEmpresaC=0&ctl00$ContentPlaceHolder1$hidIdEmpresaVenta=-1&ctl00$ContentPlaceHolder1$hidIdOrgC=-1&ctl00$ContentPlaceHolder1$hidIdOrgV=-1&ctl00$ContentPlaceHolder1$hidNombreDemandante=-1&ctl00$ContentPlaceHolder1$hidNombreProducto=-1&ctl00$ContentPlaceHolder1$hidNombreProveedor=-1&ctl00$ContentPlaceHolder1$hidRangoMaximoFecha=&ctl00$ContentPlaceHolder1$hidRedir=&cuantia=0&departamento=&desdeFomulario=true&entidad=&estado=1&fechaFinal=&fechaInicial=&findEntidad=&municipio=0&numeroProceso=&objeto=26000000&paginaObjetivo=1&registrosXPagina=500&tipoProceso=
23000000,https://www.contratos.gov.co/consultas/resultadosConsulta.do?&ctl00$ContentPlaceHolder1$hidIDProducto=-1&ctl00$ContentPlaceHolder1$hidIDProductoNoIngresado=-1&ctl00$ContentPlaceHolder1$hidIDRubro=-1&ctl00$ContentPlaceHolder1$hidIdEmpresaC=0&ctl00$ContentPlaceHolder1$hidIdEmpresaVenta=-1&ctl00$ContentPlaceHolder1$hidIdOrgC=-1&ctl00$ContentPlaceHolder1$hidIdOrgV=-1&ctl00$ContentPlaceHolder1$hidNombreDemandante=-1&ctl00$ContentPlaceHolder1$hidNombreProducto=-1&ctl00$ContentPlaceHolder1$hidNombreProveedor=-1&ctl00$ContentPlaceHolder1$hidRangoMaximoFecha=&ctl00$ContentPlaceHolder1$hidRedir=&cuantia=0&departamento=&desdeFomulario=true&entidad=&estado=1&fechaFinal=&fechaInicial=&findEntidad=&municipio=0&numeroProceso=&objeto=23000000&paginaObjetivo=1&registrosXPagina=500&tipoProceso=
24000000,https://www.contratos.gov.co/consultas/resultadosConsulta.do?&ctl00$ContentPlaceHolder1$hidIDProducto=-1&ctl00$ContentPlaceHolder1$hidIDProductoNoIngresado=-1&ctl00$ContentPlaceHolder1$hidIDRubro=-1&ctl00$ContentPlaceHolder1$hidIdEmpresaC=0&ctl00$ContentPlaceHolder1$hidIdEmpresaVenta=-1&ctl00$ContentPlaceHolder1$hidIdOrgC=-1&ctl00$ContentPlaceHolder1$hidIdOrgV=-1&ctl00$ContentPlaceHolder1$hidNombreDemandante=-1&ctl00$ContentPlaceHolder1$hidNombreProducto=-1&ctl00$ContentPlaceHolder1$hidNombreProveedor=-1&ctl00$ContentPlaceHolder1$hidRangoMaximoFecha=&ctl00$ContentPlaceHolder1$hidRedir=&cuantia=0&departamento=&desdeFomulario=true&entidad=&estado=1&fechaFinal=&fechaInicial=&findEntidad=&municipio=0&numeroProceso=&objeto=24000000&paginaObjetivo=1&registrosXPagina=500&tipoProceso=
25000000,https://www.contratos.gov.co/consultas/resultadosConsulta.do?&ctl00$ContentPlaceHolder1$hidIDProducto=-1&ctl00$ContentPlaceHolder1$hidIDProductoNoIngresado=-1&ctl00$ContentPlaceHolder1$hidIDRubro=-1&ctl00$ContentPlaceHolder1$hidIdEmpresaC=0&ctl00$ContentPlaceHolder1$hidIdEmpresaVenta=-1&ctl00$ContentPlaceHolder1$hidIdOrgC=-1&ctl00$ContentPlaceHolder1$hidIdOrgV=-1&ctl00$ContentPlaceHolder1$hidNombreDemandante=-1&ctl00$ContentPlaceHolder1$hidNombreProducto=-1&ctl00$ContentPlaceHolder1$hidNombreProveedor=-1&ctl00$ContentPlaceHolder1$hidRangoMaximoFecha=&ctl00$ContentPlaceHolder1$hidRedir=&cuantia=0&departamento=&desdeFomulario=true&entidad=&estado=1&fechaFinal=&fechaInicial=&findEntidad=&municipio=0&numeroProceso=&objeto=25000000&paginaObjetivo=1&registrosXPagina=500&tipoProceso=
32000000,https://www.contratos.gov.co/consultas/resultadosConsulta.do?&ctl00$ContentPlaceHolder1$hidIDProducto=-1&ctl00$ContentPlaceHolder1$hidIDProductoNoIngresado=-1&ctl00$ContentPlaceHolder1$hidIDRubro=-1&ctl00$ContentPlaceHolder1$hidIdEmpresaC=0&ctl00$ContentPlaceHolder1$hidIdEmpresaVenta=-1&ctl00$ContentPlaceHolder1$hidIdOrgC=-1&ctl00$ContentPlaceHolder1$hidIdOrgV=-1&ctl00$ContentPlaceHolder1$hidNombreDemandante=-1&ctl00$ContentPlaceHolder1$hidNombreProducto=-1&ctl00$ContentPlaceHolder1$hidNombreProveedor=-1&ctl00$ContentPlaceHolder1$hidRangoMaximoFecha=&ctl00$ContentPlaceHolder1$hidRedir=&cuantia=0&departamento=&desdeFomulario=true&entidad=&estado=1&fechaFinal=&fechaInicial=&findEntidad=&municipio=0&numeroProceso=&objeto=32000000&paginaObjetivo=1&registrosXPagina=500&tipoProceso=
40000000,https://www.contratos.gov.co/consultas/resultadosConsulta.do?&ctl00$ContentPlaceHolder1$hidIDProducto=-1&ctl00$ContentPlaceHolder1$hidIDProductoNoIngresado=-1&ctl00$ContentPlaceHolder1$hidIDRubro=-1&ctl00$ContentPlaceHolder1$hidIdEmpresaC=0&ctl00$ContentPlaceHolder1$hidIdEmpresaVenta=-1&ctl00$ContentPlaceHolder1$hidIdOrgC=-1&ctl00$ContentPlaceHolder1$hidIdOrgV=-1&ctl00$ContentPlaceHolder1$hidNombreDemandante=-1&ctl00$ContentPlaceHolder1$hidNombreProducto=-1&ctl00$ContentPlaceHolder1$hidNombreProveedor=-1&ctl00$ContentPlaceHolder1$hidRangoMaximoFecha=&ctl00$ContentPlaceHolder1$hidRedir=&cuantia=0&departamento=&desdeFomulario=true&entidad=&estado=1&fechaFinal=&fechaInicial=&findEntidad=&municipio=0&numeroProceso=&objeto=40000000&paginaObjetivo=1&registrosXPagina=500&tipoProceso=
26000000,https://www.contratos.gov.co/consultas/resultadosConsulta.do?&ctl00$ContentPlaceHolder1$hidIDProducto=-1&ctl00$ContentPlaceHolder1$hidIDProductoNoIngresado=-1&ctl00$ContentPlaceHolder1$hidIDRubro=-1&ctl00$ContentPlaceHolder1$hidIdEmpresaC=0&ctl00$ContentPlaceHolder1$hidIdEmpresaVenta=-1&ctl00$ContentPlaceHolder1$hidIdOrgC=-1&ctl00$ContentPlaceHolder1$hidIdOrgV=-1&ctl00$ContentPlaceHolder1$hidNombreDemandante=-1&ctl00$ContentPlaceHolder1$hidNombreProducto=-1&ctl00$ContentPlaceHolder1$hidNombreProveedor=-1&ctl00$ContentPlaceHolder1$hidRangoMaximoFecha=&ctl00$ContentPlaceHolder1$hidRedir=&cuantia=0&departamento=&desdeFomulario=true&entidad=&estado=1&fechaFinal=&fechaInicial=&findEntidad=&municipio=0&numeroProceso=&objeto=26000000&paginaObjetivo=1&registrosXPagina=500&tipoProceso=
27000000,https://www.contratos.gov.co/consultas/resultadosConsulta.do?&ctl00$ContentPlaceHolder1$hidIDProducto=-1&ctl00$ContentPlaceHolder1$hidIDProductoNoIngresado=-1&ctl00$ContentPlaceHolder1$hidIDRubro=-1&ctl00$ContentPlaceHolder1$hidIdEmpresaC=0&ctl00$ContentPlaceHolder1$hidIdEmpresaVenta=-1&ctl00$ContentPlaceHolder1$hidIdOrgC=-1&ctl00$ContentPlaceHolder1$hidIdOrgV=-1&ctl00$ContentPlaceHolder1$hidNombreDemandante=-1&ctl00$ContentPlaceHolder1$hidNombreProducto=-1&ctl00$ContentPlaceHolder1$hidNombreProveedor=-1&ctl00$ContentPlaceHolder1$hidRangoMaximoFecha=&ctl00$ContentPlaceHolder1$hidRedir=&cuantia=0&departamento=&desdeFomulario=true&entidad=&estado=1&fechaFinal=&fechaInicial=&findEntidad=&municipio=0&numeroProceso=&objeto=27000000&paginaObjetivo=1&registrosXPagina=500&tipoProceso=
30000000,https://www.contratos.gov.co/consultas/resultadosConsulta.do?&ctl00$ContentPlaceHolder1$hidIDProducto=-1&ctl00$ContentPlaceHolder1$hidIDProductoNoIngresado=-1&ctl00$ContentPlaceHolder1$hidIDRubro=-1&ctl00$ContentPlaceHolder1$hidIdEmpresaC=0&ctl00$ContentPlaceHolder1$hidIdEmpresaVenta=-1&ctl00$ContentPlaceHolder1$hidIdOrgC=-1&ctl00$ContentPlaceHolder1$hidIdOrgV=-1&ctl00$ContentPlaceHolder1$hidNombreDemandante=-1&ctl00$ContentPlaceHolder1$hidNombreProducto=-1&ctl00$ContentPlaceHolder1$hidNombreProveedor=-1&ctl00$ContentPlaceHolder1$hidRangoMaximoFecha=&ctl00$ContentPlaceHolder1$hidRedir=&cuantia=0&departamento=&desdeFomulario=true&entidad=&estado=1&fechaFinal=&fechaInicial=&findEntidad=&municipio=0&numeroProceso=&objeto=30000000&paginaObjetivo=1&registrosXPagina=500&tipoProceso=
31000000,https://www.contratos.gov.co/consultas/resultadosConsulta.do?&ctl00$ContentPlaceHolder1$hidIDProducto=-1&ctl00$ContentPlaceHolder1$hidIDProductoNoIngresado=-1&ctl00$ContentPlaceHolder1$hidIDRubro=-1&ctl00$ContentPlaceHolder1$hidIdEmpresaC=0&ctl00$ContentPlaceHolder1$hidIdEmpresaVenta=-1&ctl00$ContentPlaceHolder1$hidIdOrgC=-1&ctl00$ContentPlaceHolder1$hidIdOrgV=-1&ctl00$ContentPlaceHolder1$hidNombreDemandante=-1&ctl00$ContentPlaceHolder1$hidNombreProducto=-1&ctl00$ContentPlaceHolder1$hidNombreProveedor=-1&ctl00$ContentPlaceHolder1$hidRangoMaximoFecha=&ctl00$ContentPlaceHolder1$hidRedir=&cuantia=0&departamento=&desdeFomulario=true&entidad=&estado=1&fechaFinal=&fechaInicial=&findEntidad=&municipio=0&numeroProceso=&objeto=31000000&paginaObjetivo=1&registrosXPagina=500&tipoProceso=
39000000,https://www.contratos.gov.co/consultas/resultadosConsulta.do?&ctl00$ContentPlaceHolder1$hidIDProducto=-1&ctl00$ContentPlaceHolder1$hidIDProductoNoIngresado=-1&ctl00$ContentPlaceHolder1$hidIDRubro=-1&ctl00$ContentPlaceHolder1$hidIdEmpresaC=0&ctl00$ContentPlaceHolder1$hidIdEmpresaVenta=-1&ctl00$ContentPlaceHolder1$hidIdOrgC=-1&ctl00$ContentPlaceHolder1$hidIdOrgV=-1&ctl00$ContentPlaceHolder1$hidNombreDemandante=-1&ctl00$ContentPlaceHolder1$hidNombreProducto=-1&ctl00$ContentPlaceHolder1$hidNombreProveedor=-1&ctl00$ContentPlaceHolder1$hidRangoMaximoFecha=&ctl00$ContentPlaceHolder1$hidRedir=&cuantia=0&departamento=&desdeFomulario=true&entidad=&estado=1&fechaFinal=&fechaInicial=&findEntidad=&municipio=0&numeroProceso=&objeto=39000000&paginaObjetivo=1&registrosXPagina=500&tipoProceso=
41000000,https://www.contratos.gov.co/consultas/resultadosConsulta.do?&ctl00$ContentPlaceHolder1$hidIDProducto=-1&ctl00$ContentPlaceHolder1$hidIDProductoNoIngresado=-1&ctl00$ContentPlaceHolder1$hidIDRubro=-1&ctl00$ContentPlaceHolder1$hidIdEmpresaC=0&ctl00$ContentPlaceHolder1$hidIdEmpresaVenta=-1&ctl00$ContentPlaceHolder1$hidIdOrgC=-1&ctl00$ContentPlaceHolder1$hidIdOrgV=-1&ctl00$ContentPlaceHolder1$hidNombreDemandante=-1&ctl00$ContentPlaceHolder1$hidNombreProducto=-1&ctl00$ContentPlaceHolder1$hidNombreProveedor=-1&ctl00$ContentPlaceHolder1$hidRangoMaximoFecha=&ctl00$ContentPlaceHolder1$hidRedir=&cuantia=0&departamento=&desdeFomulario=true&entidad=&estado=1&fechaFinal=&fechaInicial=&findEntidad=&municipio=0&numeroProceso=&objeto=41000000&paginaObjetivo=1&registrosXPagina=500&tipoProceso=
42000000,https://www.contratos.gov.co/consultas/resultadosConsulta.do?&ctl00$ContentPlaceHolder1$hidIDProducto=-1&ctl00$ContentPlaceHolder1$hidIDProductoNoIngresado=-1&ctl00$ContentPlaceHolder1$hidIDRubro=-1&ctl00$ContentPlaceHolder1$hidIdEmpresaC=0&ctl00$ContentPlaceHolder1$hidIdEmpresaVenta=-1&ctl00$ContentPlaceHolder1$hidIdOrgC=-1&ctl00$ContentPlaceHolder1$hidIdOrgV=-1&ctl00$ContentPlaceHolder1$hidNombreDemandante=-1&ctl00$ContentPlaceHolder1$hidNombreProducto=-1&ctl00$ContentPlaceHolder1$hidNombreProveedor=-1&ctl00$ContentPlaceHolder1$hidRangoMaximoFecha=&ctl00$ContentPlaceHolder1$hidRedir=&cuantia=0&departamento=&desdeFomulario=true&entidad=&estado=1&fechaFinal=&fechaInicial=&findEntidad=&municipio=0&numeroProceso=&objeto=42000000&paginaObjetivo=1&registrosXPagina=500&tipoProceso=
44000000,https://www.contratos.gov.co/consultas/resultadosConsulta.do?&ctl00$ContentPlaceHolder1$hidIDProducto=-1&ctl00$ContentPlaceHolder1$hidIDProductoNoIngresado=-1&ctl00$ContentPlaceHolder1$hidIDRubro=-1&ctl00$ContentPlaceHolder1$hidIdEmpresaC=0&ctl00$ContentPlaceHolder1$hidIdEmpresaVenta=-1&ctl00$ContentPlaceHolder1$hidIdOrgC=-1&ctl00$ContentPlaceHolder1$hidIdOrgV=-1&ctl00$ContentPlaceHolder1$hidNombreDemandante=-1&ctl00$ContentPlaceHolder1$hidNombreProducto=-1&ctl00$ContentPlaceHolder1$hidNombreProveedor=-1&ctl00$ContentPlaceHolder1$hidRangoMaximoFecha=&ctl00$ContentPlaceHolder1$hidRedir=&cuantia=0&departamento=&desdeFomulario=true&entidad=&estado=1&fechaFinal=&fechaInicial=&findEntidad=&municipio=0&numeroProceso=&objeto=44000000&paginaObjetivo=1&registrosXPagina=500&tipoProceso=
43000000,https://www.contratos.gov.co/consultas/resultadosConsulta.do?&ctl00$ContentPlaceHolder1$hidIDProducto=-1&ctl00$ContentPlaceHolder1$hidIDProductoNoIngresado=-1&ctl00$ContentPlaceHolder1$hidIDRubro=-1&ctl00$ContentPlaceHolder1$hidIdEmpresaC=0&ctl00$ContentPlaceHolder1$hidIdEmpresaVenta=-1&ctl00$ContentPlaceHolder1$hidIdOrgC=-1&ctl00$ContentPlaceHolder1$hidIdOrgV=-1&ctl00$ContentPlaceHolder1$hidNombreDemandante=-1&ctl00$ContentPlaceHolder1$hidNombreProducto=-1&ctl00$ContentPlaceHolder1$hidNombreProveedor=-1&ctl00$ContentPlaceHolder1$hidRangoMaximoFecha=&ctl00$ContentPlaceHolder1$hidRedir=&cuantia=0&departamento=&desdeFomulario=true&entidad=&estado=1&fechaFinal=&fechaInicial=&findEntidad=&municipio=0&numeroProceso=&objeto=43000000&paginaObjetivo=1&registrosXPagina=500&tipoProceso=
45000000,https://www.contratos.gov.co/consultas/resultadosConsulta.do?&ctl00$ContentPlaceHolder1$hidIDProducto=-1&ctl00$ContentPlaceHolder1$hidIDProductoNoIngresado=-1&ctl00$ContentPlaceHolder1$hidIDRubro=-1&ctl00$ContentPlaceHolder1$hidIdEmpresaC=0&ctl00$ContentPlaceHolder1$hidIdEmpresaVenta=-1&ctl00$ContentPlaceHolder1$hidIdOrgC=-1&ctl00$ContentPlaceHolder1$hidIdOrgV=-1&ctl00$ContentPlaceHolder1$hidNombreDemandante=-1&ctl00$ContentPlaceHolder1$hidNombreProducto=-1&ctl00$ContentPlaceHolder1$hidNombreProveedor=-1&ctl00$ContentPlaceHolder1$hidRangoMaximoFecha=&ctl00$ContentPlaceHolder1$hidRedir=&cuantia=0&departamento=&desdeFomulario=true&entidad=&estado=1&fechaFinal=&fechaInicial=&findEntidad=&municipio=0&numeroProceso=&objeto=45000000&paginaObjetivo=1&registrosXPagina=500&tipoProceso=
46000000,https://www.contratos.gov.co/consultas/resultadosConsulta.do?&ctl00$ContentPlaceHolder1$hidIDProducto=-1&ctl00$ContentPlaceHolder1$hidIDProductoNoIngresado=-1&ctl00$ContentPlaceHolder1$hidIDRubro=-1&ctl00$ContentPlaceHolder1$hidIdEmpresaC=0&ctl00$ContentPlaceHolder1$hidIdEmpresaVenta=-1&ctl00$ContentPlaceHolder1$hidIdOrgC=-1&ctl00$ContentPlaceHolder1$hidIdOrgV=-1&ctl00$ContentPlaceHolder1$hidNombreDemandante=-1&ctl00$ContentPlaceHolder1$hidNombreProducto=-1&ctl00$ContentPlaceHolder1$hidNombreProveedor=-1&ctl00$ContentPlaceHolder1$hidRangoMaximoFecha=&ctl00$ContentPlaceHolder1$hidRedir=&cuantia=0&departamento=&desdeFomulario=true&entidad=&estado=1&fechaFinal=&fechaInicial=&findEntidad=&municipio=0&numeroProceso=&objeto=46000000&paginaObjetivo=1&registrosXPagina=500&tipoProceso=
47000000,https://www.contratos.gov.co/consultas/resultadosConsulta.do?&ctl00$ContentPlaceHolder1$hidIDProducto=-1&ctl00$ContentPlaceHolder1$hidIDProductoNoIngresado=-1&ctl00$ContentPlaceHolder1$hidIDRubro=-1&ctl00$ContentPlaceHolder1$hidIdEmpresaC=0&ctl00$ContentPlaceHolder1$hidIdEmpresaVenta=-1&ctl00$ContentPlaceHolder1$hidIdOrgC=-1&ctl00$ContentPlaceHolder1$hidIdOrgV=-1&ctl00$ContentPlaceHolder1$hidNombreDemandante=-1&ctl00$ContentPlaceHolder1$hidNombreProducto=-1&ctl00$ContentPlaceHolder1$hidNombreProveedor=-1&ctl00$ContentPlaceHolder1$hidRangoMaximoFecha=&ctl00$ContentPlaceHolder1$hidRedir=&cuantia=0&departamento=&desdeFomulario=true&entidad=&estado=1&fechaFinal=&fechaInicial=&findEntidad=&municipio=0&numeroProceso=&objeto=47000000&paginaObjetivo=1&registrosXPagina=500&tipoProceso=
48000000,https://www.contratos.gov.co/consultas/resultadosConsulta.do?&ctl00$ContentPlaceHolder1$hidIDProducto=-1&ctl00$ContentPlaceHolder1$hidIDProductoNoIngresado=-1&ctl00$ContentPlaceHolder1$hidIDRubro=-1&ctl00$ContentPlaceHolder1$hidIdEmpresaC=0&ctl00$ContentPlaceHolder1$hidIdEmpresaVenta=-1&ctl00$ContentPlaceHolder1$hidIdOrgC=-1&ctl00$ContentPlaceHolder1$hidIdOrgV=-1&ctl00$ContentPlaceHolder1$hidNombreDemandante=-1&ctl00$ContentPlaceHolder1$hidNombreProducto=-1&ctl00$ContentPlaceHolder1$hidNombreProveedor=-1&ctl00$ContentPlaceHolder1$hidRangoMaximoFecha=&ctl00$ContentPlaceHolder1$hidRedir=&cuantia=0&departamento=&desdeFomulario=true&entidad=&estado=1&fechaFinal=&fechaInicial=&findEntidad=&municipio=0&numeroProceso=&objeto=48000000&paginaObjetivo=1&registrosXPagina=500&tipoProceso=
49000000,https://www.contratos.gov.co/consultas/resultadosConsulta.do?&ctl00$ContentPlaceHolder1$hidIDProducto=-1&ctl00$ContentPlaceHolder1$hidIDProductoNoIngresado=-1&ctl00$ContentPlaceHolder1$hidIDRubro=-1&ctl00$ContentPlaceHolder1$hidIdEmpresaC=0&ctl00$ContentPlaceHolder1$hidIdEmpresaVenta=-1&ctl00$ContentPlaceHolder1$hidIdOrgC=-1&ctl00$ContentPlaceHolder1$hidIdOrgV=-1&ctl00$ContentPlaceHolder1$hidNombreDemandante=-1&ctl00$ContentPlaceHolder1$hidNombreProducto=-1&ctl00$ContentPlaceHolder1$hidNombreProveedor=-1&ctl00$ContentPlaceHolder1$hidRangoMaximoFecha=&ctl00$ContentPlaceHolder1$hidRedir=&cuantia=0&departamento=&desdeFomulario=true&entidad=&estado=1&fechaFinal=&fechaInicial=&findEntidad=&municipio=0&numeroProceso=&objeto=49000000&paginaObjetivo=1&registrosXPagina=500&tipoProceso=
50000000,https://www.contratos.gov.co/consultas/resultadosConsulta.do?&ctl00$ContentPlaceHolder1$hidIDProducto=-1&ctl00$ContentPlaceHolder1$hidIDProductoNoIngresado=-1&ctl00$ContentPlaceHolder1$hidIDRubro=-1&ctl00$ContentPlaceHolder1$hidIdEmpresaC=0&ctl00$ContentPlaceHolder1$hidIdEmpresaVenta=-1&ctl00$ContentPlaceHolder1$hidIdOrgC=-1&ctl00$ContentPlaceHolder1$hidIdOrgV=-1&ctl00$ContentPlaceHolder1$hidNombreDemandante=-1&ctl00$ContentPlaceHolder1$hidNombreProducto=-1&ctl00$ContentPlaceHolder1$hidNombreProveedor=-1&ctl00$ContentPlaceHolder1$hidRangoMaximoFecha=&ctl00$ContentPlaceHolder1$hidRedir=&cuantia=0&departamento=&desdeFomulario=true&entidad=&estado=1&fechaFinal=&fechaInicial=&findEntidad=&municipio=0&numeroProceso=&objeto=50000000&paginaObjetivo=1&registrosXPagina=500&tipoProceso=
51000000,https://www.contratos.gov.co/consultas/resultadosConsulta.do?&ctl00$ContentPlaceHolder1$hidIDProducto=-1&ctl00$ContentPlaceHolder1$hidIDProductoNoIngresado=-1&ctl00$ContentPlaceHolder1$hidIDRubro=-1&ctl00$ContentPlaceHolder1$hidIdEmpresaC=0&ctl00$ContentPlaceHolder1$hidIdEmpresaVenta=-1&ctl00$ContentPlaceHolder1$hidIdOrgC=-1&ctl00$ContentPlaceHolder1$hidIdOrgV=-1&ctl00$ContentPlaceHolder1$hidNombreDemandante=-1&ctl00$ContentPlaceHolder1$hidNombreProducto=-1&ctl00$ContentPlaceHolder1$hidNombreProveedor=-1&ctl00$ContentPlaceHolder1$hidRangoMaximoFecha=&ctl00$ContentPlaceHolder1$hidRedir=&cuantia=0&departamento=&desdeFomulario=true&entidad=&estado=1&fechaFinal=&fechaInicial=&findEntidad=&municipio=0&numeroProceso=&objeto=51000000&paginaObjetivo=1&registrosXPagina=500&tipoProceso=
52000000,https://www.contratos.gov.co/consultas/resultadosConsulta.do?&ctl00$ContentPlaceHolder1$hidIDProducto=-1&ctl00$ContentPlaceHolder1$hidIDProductoNoIngresado=-1&ctl00$ContentPlaceHolder1$hidIDRubro=-1&ctl00$ContentPlaceHolder1$hidIdEmpresaC=0&ctl00$ContentPlaceHolder1$hidIdEmpresaVenta=-1&ctl00$ContentPlaceHolder1$hidIdOrgC=-1&ctl00$ContentPlaceHolder1$hidIdOrgV=-1&ctl00$ContentPlaceHolder1$hidNombreDemandante=-1&ctl00$ContentPlaceHolder1$hidNombreProducto=-1&ctl00$ContentPlaceHolder1$hidNombreProveedor=-1&ctl00$ContentPlaceHolder1$hidRangoMaximoFecha=&ctl00$ContentPlaceHolder1$hidRedir=&cuantia=0&departamento=&desdeFomulario=true&entidad=&estado=1&fechaFinal=&fechaInicial=&findEntidad=&municipio=0&numeroProceso=&objeto=52000000&paginaObjetivo=1&registrosXPagina=500&tipoProceso=
53000000,https://www.contratos.gov.co/consultas/resultadosConsulta.do?&ctl00$ContentPlaceHolder1$hidIDProducto=-1&ctl00$ContentPlaceHolder1$hidIDProductoNoIngresado=-1&ctl00$ContentPlaceHolder1$hidIDRubro=-1&ctl00$ContentPlaceHolder1$hidIdEmpresaC=0&ctl00$ContentPlaceHolder1$hidIdEmpresaVenta=-1&ctl00$ContentPlaceHolder1$hidIdOrgC=-1&ctl00$ContentPlaceHolder1$hidIdOrgV=-1&ctl00$ContentPlaceHolder1$hidNombreDemandante=-1&ctl00$ContentPlaceHolder1$hidNombreProducto=-1&ctl00$ContentPlaceHolder1$hidNombreProveedor=-1&ctl00$ContentPlaceHolder1$hidRangoMaximoFecha=&ctl00$ContentPlaceHolder1$hidRedir=&cuantia=0&departamento=&desdeFomulario=true&entidad=&estado=1&fechaFinal=&fechaInicial=&findEntidad=&municipio=0&numeroProceso=&objeto=53000000&paginaObjetivo=1&registrosXPagina=500&tipoProceso=
54000000,https://www.contratos.gov.co/consultas/resultadosConsulta.do?&ctl00$ContentPlaceHolder1$hidIDProducto=-1&ctl00$ContentPlaceHolder1$hidIDProductoNoIngresado=-1&ctl00$ContentPlaceHolder1$hidIDRubro=-1&ctl00$ContentPlaceHolder1$hidIdEmpresaC=0&ctl00$ContentPlaceHolder1$hidIdEmpresaVenta=-1&ctl00$ContentPlaceHolder1$hidIdOrgC=-1&ctl00$ContentPlaceHolder1$hidIdOrgV=-1&ctl00$ContentPlaceHolder1$hidNombreDemandante=-1&ctl00$ContentPlaceHolder1$hidNombreProducto=-1&ctl00$ContentPlaceHolder1$hidNombreProveedor=-1&ctl00$ContentPlaceHolder1$hidRangoMaximoFecha=&ctl00$ContentPlaceHolder1$hidRedir=&cuantia=0&departamento=&desdeFomulario=true&entidad=&estado=1&fechaFinal=&fechaInicial=&findEntidad=&municipio=0&numeroProceso=&objeto=54000000&paginaObjetivo=1&registrosXPagina=500&tipoProceso=
55000000,https://www.contratos.gov.co/consultas/resultadosConsulta.do?&ctl00$ContentPlaceHolder1$hidIDProducto=-1&ctl00$ContentPlaceHolder1$hidIDProductoNoIngresado=-1&ctl00$ContentPlaceHolder1$hidIDRubro=-1&ctl00$ContentPlaceHolder1$hidIdEmpresaC=0&ctl00$ContentPlaceHolder1$hidIdEmpresaVenta=-1&ctl00$ContentPlaceHolder1$hidIdOrgC=-1&ctl00$ContentPlaceHolder1$hidIdOrgV=-1&ctl00$ContentPlaceHolder1$hidNombreDemandante=-1&ctl00$ContentPlaceHolder1$hidNombreProducto=-1&ctl00$ContentPlaceHolder1$hidNombreProveedor=-1&ctl00$ContentPlaceHolder1$hidRangoMaximoFecha=&ctl00$ContentPlaceHolder1$hidRedir=&cuantia=0&departamento=&desdeFomulario=true&entidad=&estado=1&fechaFinal=&fechaInicial=&findEntidad=&municipio=0&numeroProceso=&objeto=55000000&paginaObjetivo=1&registrosXPagina=500&tipoProceso=
56000000,https://www.contratos.gov.co/consultas/resultadosConsulta.do?&ctl00$ContentPlaceHolder1$hidIDProducto=-1&ctl00$ContentPlaceHolder1$hidIDProductoNoIngresado=-1&ctl00$ContentPlaceHolder1$hidIDRubro=-1&ctl00$ContentPlaceHolder1$hidIdEmpresaC=0&ctl00$ContentPlaceHolder1$hidIdEmpresaVenta=-1&ctl00$ContentPlaceHolder1$hidIdOrgC=-1&ctl00$ContentPlaceHolder1$hidIdOrgV=-1&ctl00$ContentPlaceHolder1$hidNombreDemandante=-1&ctl00$ContentPlaceHolder1$hidNombreProducto=-1&ctl00$ContentPlaceHolder1$hidNombreProveedor=-1&ctl00$ContentPlaceHolder1$hidRangoMaximoFecha=&ctl00$ContentPlaceHolder1$hidRedir=&cuantia=0&departamento=&desdeFomulario=true&entidad=&estado=1&fechaFinal=&fechaInicial=&findEntidad=&municipio=0&numeroProceso=&objeto=56000000&paginaObjetivo=1&registrosXPagina=500&tipoProceso=
60000000,https://www.contratos.gov.co/consultas/resultadosConsulta.do?&ctl00$ContentPlaceHolder1$hidIDProducto=-1&ctl00$ContentPlaceHolder1$hidIDProductoNoIngresado=-1&ctl00$ContentPlaceHolder1$hidIDRubro=-1&ctl00$ContentPlaceHolder1$hidIdEmpresaC=0&ctl00$ContentPlaceHolder1$hidIdEmpresaVenta=-1&ctl00$ContentPlaceHolder1$hidIdOrgC=-1&ctl00$ContentPlaceHolder1$hidIdOrgV=-1&ctl00$ContentPlaceHolder1$hidNombreDemandante=-1&ctl00$ContentPlaceHolder1$hidNombreProducto=-1&ctl00$ContentPlaceHolder1$hidNombreProveedor=-1&ctl00$ContentPlaceHolder1$hidRangoMaximoFecha=&ctl00$ContentPlaceHolder1$hidRedir=&cuantia=0&departamento=&desdeFomulario=true&entidad=&estado=1&fechaFinal=&fechaInicial=&findEntidad=&municipio=0&numeroProceso=&objeto=60000000&paginaObjetivo=1&registrosXPagina=500&tipoProceso=
70000000,https://www.contratos.gov.co/consultas/resultadosConsulta.do?&ctl00$ContentPlaceHolder1$hidIDProducto=-1&ctl00$ContentPlaceHolder1$hidIDProductoNoIngresado=-1&ctl00$ContentPlaceHolder1$hidIDRubro=-1&ctl00$ContentPlaceHolder1$hidIdEmpresaC=0&ctl00$ContentPlaceHolder1$hidIdEmpresaVenta=-1&ctl00$ContentPlaceHolder1$hidIdOrgC=-1&ctl00$ContentPlaceHolder1$hidIdOrgV=-1&ctl00$ContentPlaceHolder1$hidNombreDemandante=-1&ctl00$ContentPlaceHolder1$hidNombreProducto=-1&ctl00$ContentPlaceHolder1$hidNombreProveedor=-1&ctl00$ContentPlaceHolder1$hidRangoMaximoFecha=&ctl00$ContentPlaceHolder1$hidRedir=&cuantia=0&departamento=&desdeFomulario=true&entidad=&estado=1&fechaFinal=&fechaInicial=&findEntidad=&municipio=0&numeroProceso=&objeto=70000000&paginaObjetivo=1&registrosXPagina=500&tipoProceso=
71000000,https://www.contratos.gov.co/consultas/resultadosConsulta.do?&ctl00$ContentPlaceHolder1$hidIDProducto=-1&ctl00$ContentPlaceHolder1$hidIDProductoNoIngresado=-1&ctl00$ContentPlaceHolder1$hidIDRubro=-1&ctl00$ContentPlaceHolder1$hidIdEmpresaC=0&ctl00$ContentPlaceHolder1$hidIdEmpresaVenta=-1&ctl00$ContentPlaceHolder1$hidIdOrgC=-1&ctl00$ContentPlaceHolder1$hidIdOrgV=-1&ctl00$ContentPlaceHolder1$hidNombreDemandante=-1&ctl00$ContentPlaceHolder1$hidNombreProducto=-1&ctl00$ContentPlaceHolder1$hidNombreProveedor=-1&ctl00$ContentPlaceHolder1$hidRangoMaximoFecha=&ctl00$ContentPlaceHolder1$hidRedir=&cuantia=0&departamento=&desdeFomulario=true&entidad=&estado=1&fechaFinal=&fechaInicial=&findEntidad=&municipio=0&numeroProceso=&objeto=71000000&paginaObjetivo=1&registrosXPagina=500&tipoProceso=
72000000,https://www.contratos.gov.co/consultas/resultadosConsulta.do?&ctl00$ContentPlaceHolder1$hidIDProducto=-1&ctl00$ContentPlaceHolder1$hidIDProductoNoIngresado=-1&ctl00$ContentPlaceHolder1$hidIDRubro=-1&ctl00$ContentPlaceHolder1$hidIdEmpresaC=0&ctl00$ContentPlaceHolder1$hidIdEmpresaVenta=-1&ctl00$ContentPlaceHolder1$hidIdOrgC=-1&ctl00$ContentPlaceHolder1$hidIdOrgV=-1&ctl00$ContentPlaceHolder1$hidNombreDemandante=-1&ctl00$ContentPlaceHolder1$hidNombreProducto=-1&ctl00$ContentPlaceHolder1$hidNombreProveedor=-1&ctl00$ContentPlaceHolder1$hidRangoMaximoFecha=&ctl00$ContentPlaceHolder1$hidRedir=&cuantia=0&departamento=&desdeFomulario=true&entidad=&estado=1&fechaFinal=&fechaInicial=&findEntidad=&municipio=0&numeroProceso=&objeto=72000000&paginaObjetivo=1&registrosXPagina=500&tipoProceso=
73000000,https://www.contratos.gov.co/consultas/resultadosConsulta.do?&ctl00$ContentPlaceHolder1$hidIDProducto=-1&ctl00$ContentPlaceHolder1$hidIDProductoNoIngresado=-1&ctl00$ContentPlaceHolder1$hidIDRubro=-1&ctl00$ContentPlaceHolder1$hidIdEmpresaC=0&ctl00$ContentPlaceHolder1$hidIdEmpresaVenta=-1&ctl00$ContentPlaceHolder1$hidIdOrgC=-1&ctl00$ContentPlaceHolder1$hidIdOrgV=-1&ctl00$ContentPlaceHolder1$hidNombreDemandante=-1&ctl00$ContentPlaceHolder1$hidNombreProducto=-1&ctl00$ContentPlaceHolder1$hidNombreProveedor=-1&ctl00$ContentPlaceHolder1$hidRangoMaximoFecha=&ctl00$ContentPlaceHolder1$hidRedir=&cuantia=0&departamento=&desdeFomulario=true&entidad=&estado=1&fechaFinal=&fechaInicial=&findEntidad=&municipio=0&numeroProceso=&objeto=73000000&paginaObjetivo=1&registrosXPagina=500&tipoProceso=
76000000,https://www.contratos.gov.co/consultas/resultadosConsulta.do?&ctl00$ContentPlaceHolder1$hidIDProducto=-1&ctl00$ContentPlaceHolder1$hidIDProductoNoIngresado=-1&ctl00$ContentPlaceHolder1$hidIDRubro=-1&ctl00$ContentPlaceHolder1$hidIdEmpresaC=0&ctl00$ContentPlaceHolder1$hidIdEmpresaVenta=-1&ctl00$ContentPlaceHolder1$hidIdOrgC=-1&ctl00$ContentPlaceHolder1$hidIdOrgV=-1&ctl00$ContentPlaceHolder1$hidNombreDemandante=-1&ctl00$ContentPlaceHolder1$hidNombreProducto=-1&ctl00$ContentPlaceHolder1$hidNombreProveedor=-1&ctl00$ContentPlaceHolder1$hidRangoMaximoFecha=&ctl00$ContentPlaceHolder1$hidRedir=&cuantia=0&departamento=&desdeFomulario=true&entidad=&estado=1&fechaFinal=&fechaInicial=&findEntidad=&municipio=0&numeroProceso=&objeto=76000000&paginaObjetivo=1&registrosXPagina=500&tipoProceso=
77000000,https://www.contratos.gov.co/consultas/resultadosConsulta.do?&ctl00$ContentPlaceHolder1$hidIDProducto=-1&ctl00$ContentPlaceHolder1$hidIDProductoNoIngresado=-1&ctl00$ContentPlaceHolder1$hidIDRubro=-1&ctl00$ContentPlaceHolder1$hidIdEmpresaC=0&ctl00$ContentPlaceHolder1$hidIdEmpresaVenta=-1&ctl00$ContentPlaceHolder1$hidIdOrgC=-1&ctl00$ContentPlaceHolder1$hidIdOrgV=-1&ctl00$ContentPlaceHolder1$hidNombreDemandante=-1&ctl00$ContentPlaceHolder1$hidNombreProducto=-1&ctl00$ContentPlaceHolder1$hidNombreProveedor=-1&ctl00$ContentPlaceHolder1$hidRangoMaximoFecha=&ctl00$ContentPlaceHolder1$hidRedir=&cuantia=0&departamento=&desdeFomulario=true&entidad=&estado=1&fechaFinal=&fechaInicial=&findEntidad=&municipio=0&numeroProceso=&objeto=77000000&paginaObjetivo=1&registrosXPagina=500&tipoProceso=
78000000,https://www.contratos.gov.co/consultas/resultadosConsulta.do?&ctl00$ContentPlaceHolder1$hidIDProducto=-1&ctl00$ContentPlaceHolder1$hidIDProductoNoIngresado=-1&ctl00$ContentPlaceHolder1$hidIDRubro=-1&ctl00$ContentPlaceHolder1$hidIdEmpresaC=0&ctl00$ContentPlaceHolder1$hidIdEmpresaVenta=-1&ctl00$ContentPlaceHolder1$hidIdOrgC=-1&ctl00$ContentPlaceHolder1$hidIdOrgV=-1&ctl00$ContentPlaceHolder1$hidNombreDemandante=-1&ctl00$ContentPlaceHolder1$hidNombreProducto=-1&ctl00$ContentPlaceHolder1$hidNombreProveedor=-1&ctl00$ContentPlaceHolder1$hidRangoMaximoFecha=&ctl00$ContentPlaceHolder1$hidRedir=&cuantia=0&departamento=&desdeFomulario=true&entidad=&estado=1&fechaFinal=&fechaInicial=&findEntidad=&municipio=0&numeroProceso=&objeto=78000000&paginaObjetivo=1&registrosXPagina=500&tipoProceso=
80000000,https://www.contratos.gov.co/consultas/resultadosConsulta.do?&ctl00$ContentPlaceHolder1$hidIDProducto=-1&ctl00$ContentPlaceHolder1$hidIDProductoNoIngresado=-1&ctl00$ContentPlaceHolder1$hidIDRubro=-1&ctl00$ContentPlaceHolder1$hidIdEmpresaC=0&ctl00$ContentPlaceHolder1$hidIdEmpresaVenta=-1&ctl00$ContentPlaceHolder1$hidIdOrgC=-1&ctl00$ContentPlaceHolder1$hidIdOrgV=-1&ctl00$ContentPlaceHolder1$hidNombreDemandante=-1&ctl00$ContentPlaceHolder1$hidNombreProducto=-1&ctl00$ContentPlaceHolder1$hidNombreProveedor=-1&ctl00$ContentPlaceHolder1$hidRangoMaximoFecha=&ctl00$ContentPlaceHolder1$hidRedir=&cuantia=0&departamento=&desdeFomulario=true&entidad=&estado=1&fechaFinal=&fechaInicial=&findEntidad=&municipio=0&numeroProceso=&objeto=80000000&paginaObjetivo=1&registrosXPagina=500&tipoProceso=
81000000,https://www.contratos.gov.co/consultas/resultadosConsulta.do?&ctl00$ContentPlaceHolder1$hidIDProducto=-1&ctl00$ContentPlaceHolder1$hidIDProductoNoIngresado=-1&ctl00$ContentPlaceHolder1$hidIDRubro=-1&ctl00$ContentPlaceHolder1$hidIdEmpresaC=0&ctl00$ContentPlaceHolder1$hidIdEmpresaVenta=-1&ctl00$ContentPlaceHolder1$hidIdOrgC=-1&ctl00$ContentPlaceHolder1$hidIdOrgV=-1&ctl00$ContentPlaceHolder1$hidNombreDemandante=-1&ctl00$ContentPlaceHolder1$hidNombreProducto=-1&ctl00$ContentPlaceHolder1$hidNombreProveedor=-1&ctl00$ContentPlaceHolder1$hidRangoMaximoFecha=&ctl00$ContentPlaceHolder1$hidRedir=&cuantia=0&departamento=&desdeFomulario=true&entidad=&estado=1&fechaFinal=&fechaInicial=&findEntidad=&municipio=0&numeroProceso=&objeto=81000000&paginaObjetivo=1&registrosXPagina=500&tipoProceso=
82000000,https://www.contratos.gov.co/consultas/resultadosConsulta.do?&ctl00$ContentPlaceHolder1$hidIDProducto=-1&ctl00$ContentPlaceHolder1$hidIDProductoNoIngresado=-1&ctl00$ContentPlaceHolder1$hidIDRubro=-1&ctl00$ContentPlaceHolder1$hidIdEmpresaC=0&ctl00$ContentPlaceHolder1$hidIdEmpresaVenta=-1&ctl00$ContentPlaceHolder1$hidIdOrgC=-1&ctl00$ContentPlaceHolder1$hidIdOrgV=-1&ctl00$ContentPlaceHolder1$hidNombreDemandante=-1&ctl00$ContentPlaceHolder1$hidNombreProducto=-1&ctl00$ContentPlaceHolder1$hidNombreProveedor=-1&ctl00$ContentPlaceHolder1$hidRangoMaximoFecha=&ctl00$ContentPlaceHolder1$hidRedir=&cuantia=0&departamento=&desdeFomulario=true&entidad=&estado=1&fechaFinal=&fechaInicial=&findEntidad=&municipio=0&numeroProceso=&objeto=82000000&paginaObjetivo=1&registrosXPagina=500&tipoProceso=
83000000,https://www.contratos.gov.co/consultas/resultadosConsulta.do?&ctl00$ContentPlaceHolder1$hidIDProducto=-1&ctl00$ContentPlaceHolder1$hidIDProductoNoIngresado=-1&ctl00$ContentPlaceHolder1$hidIDRubro=-1&ctl00$ContentPlaceHolder1$hidIdEmpresaC=0&ctl00$ContentPlaceHolder1$hidIdEmpresaVenta=-1&ctl00$ContentPlaceHolder1$hidIdOrgC=-1&ctl00$ContentPlaceHolder1$hidIdOrgV=-1&ctl00$ContentPlaceHolder1$hidNombreDemandante=-1&ctl00$ContentPlaceHolder1$hidNombreProducto=-1&ctl00$ContentPlaceHolder1$hidNombreProveedor=-1&ctl00$ContentPlaceHolder1$hidRangoMaximoFecha=&ctl00$ContentPlaceHolder1$hidRedir=&cuantia=0&departamento=&desdeFomulario=true&entidad=&estado=1&fechaFinal=&fechaInicial=&findEntidad=&municipio=0&numeroProceso=&objeto=83000000&paginaObjetivo=1&registrosXPagina=500&tipoProceso=
84000000,https://www.contratos.gov.co/consultas/resultadosConsulta.do?&ctl00$ContentPlaceHolder1$hidIDProducto=-1&ctl00$ContentPlaceHolder1$hidIDProductoNoIngresado=-1&ctl00$ContentPlaceHolder1$hidIDRubro=-1&ctl00$ContentPlaceHolder1$hidIdEmpresaC=0&ctl00$ContentPlaceHolder1$hidIdEmpresaVenta=-1&ctl00$ContentPlaceHolder1$hidIdOrgC=-1&ctl00$ContentPlaceHolder1$hidIdOrgV=-1&ctl00$ContentPlaceHolder1$hidNombreDemandante=-1&ctl00$ContentPlaceHolder1$hidNombreProducto=-1&ctl00$ContentPlaceHolder1$hidNombreProveedor=-1&ctl00$ContentPlaceHolder1$hidRangoMaximoFecha=&ctl00$ContentPlaceHolder1$hidRedir=&cuantia=0&departamento=&desdeFomulario=true&entidad=&estado=1&fechaFinal=&fechaInicial=&findEntidad=&municipio=0&numeroProceso=&objeto=84000000&paginaObjetivo=1&registrosXPagina=500&tipoProceso=
85000000,https://www.contratos.gov.co/consultas/resultadosConsulta.do?&ctl00$ContentPlaceHolder1$hidIDProducto=-1&ctl00$ContentPlaceHolder1$hidIDProductoNoIngresado=-1&ctl00$ContentPlaceHolder1$hidIDRubro=-1&ctl00$ContentPlaceHolder1$hidIdEmpresaC=0&ctl00$ContentPlaceHolder1$hidIdEmpresaVenta=-1&ctl00$ContentPlaceHolder1$hidIdOrgC=-1&ctl00$ContentPlaceHolder1$hidIdOrgV=-1&ctl00$ContentPlaceHolder1$hidNombreDemandante=-1&ctl00$ContentPlaceHolder1$hidNombreProducto=-1&ctl00$ContentPlaceHolder1$hidNombreProveedor=-1&ctl00$ContentPlaceHolder1$hidRangoMaximoFecha=&ctl00$ContentPlaceHolder1$hidRedir=&cuantia=0&departamento=&desdeFomulario=true&entidad=&estado=1&fechaFinal=&fechaInicial=&findEntidad=&municipio=0&numeroProceso=&objeto=85000000&paginaObjetivo=1&registrosXPagina=500&tipoProceso=
86000000,https://www.contratos.gov.co/consultas/resultadosConsulta.do?&ctl00$ContentPlaceHolder1$hidIDProducto=-1&ctl00$ContentPlaceHolder1$hidIDProductoNoIngresado=-1&ctl00$ContentPlaceHolder1$hidIDRubro=-1&ctl00$ContentPlaceHolder1$hidIdEmpresaC=0&ctl00$ContentPlaceHolder1$hidIdEmpresaVenta=-1&ctl00$ContentPlaceHolder1$hidIdOrgC=-1&ctl00$ContentPlaceHolder1$hidIdOrgV=-1&ctl00$ContentPlaceHolder1$hidNombreDemandante=-1&ctl00$ContentPlaceHolder1$hidNombreProducto=-1&ctl00$ContentPlaceHolder1$hidNombreProveedor=-1&ctl00$ContentPlaceHolder1$hidRangoMaximoFecha=&ctl00$ContentPlaceHolder1$hidRedir=&cuantia=0&departamento=&desdeFomulario=true&entidad=&estado=1&fechaFinal=&fechaInicial=&findEntidad=&municipio=0&numeroProceso=&objeto=86000000&paginaObjetivo=1&registrosXPagina=500&tipoProceso=
90000000,https://www.contratos.gov.co/consultas/resultadosConsulta.do?&ctl00$ContentPlaceHolder1$hidIDProducto=-1&ctl00$ContentPlaceHolder1$hidIDProductoNoIngresado=-1&ctl00$ContentPlaceHolder1$hidIDRubro=-1&ctl00$ContentPlaceHolder1$hidIdEmpresaC=0&ctl00$ContentPlaceHolder1$hidIdEmpresaVenta=-1&ctl00$ContentPlaceHolder1$hidIdOrgC=-1&ctl00$ContentPlaceHolder1$hidIdOrgV=-1&ctl00$ContentPlaceHolder1$hidNombreDemandante=-1&ctl00$ContentPlaceHolder1$hidNombreProducto=-1&ctl00$ContentPlaceHolder1$hidNombreProveedor=-1&ctl00$ContentPlaceHolder1$hidRangoMaximoFecha=&ctl00$ContentPlaceHolder1$hidRedir=&cuantia=0&departamento=&desdeFomulario=true&entidad=&estado=1&fechaFinal=&fechaInicial=&findEntidad=&municipio=0&numeroProceso=&objeto=90000000&paginaObjetivo=1&registrosXPagina=500&tipoProceso=
91000000,https://www.contratos.gov.co/consultas/resultadosConsulta.do?&ctl00$ContentPlaceHolder1$hidIDProducto=-1&ctl00$ContentPlaceHolder1$hidIDProductoNoIngresado=-1&ctl00$ContentPlaceHolder1$hidIDRubro=-1&ctl00$ContentPlaceHolder1$hidIdEmpresaC=0&ctl00$ContentPlaceHolder1$hidIdEmpresaVenta=-1&ctl00$ContentPlaceHolder1$hidIdOrgC=-1&ctl00$ContentPlaceHolder1$hidIdOrgV=-1&ctl00$ContentPlaceHolder1$hidNombreDemandante=-1&ctl00$ContentPlaceHolder1$hidNombreProducto=-1&ctl00$ContentPlaceHolder1$hidNombreProveedor=-1&ctl00$ContentPlaceHolder1$hidRangoMaximoFecha=&ctl00$ContentPlaceHolder1$hidRedir=&cuantia=0&departamento=&desdeFomulario=true&entidad=&estado=1&fechaFinal=&fechaInicial=&findEntidad=&municipio=0&numeroProceso=&objeto=91000000&paginaObjetivo=1&registrosXPagina=500&tipoProceso=
92000000,https://www.contratos.gov.co/consultas/resultadosConsulta.do?&ctl00$ContentPlaceHolder1$hidIDProducto=-1&ctl00$ContentPlaceHolder1$hidIDProductoNoIngresado=-1&ctl00$ContentPlaceHolder1$hidIDRubro=-1&ctl00$ContentPlaceHolder1$hidIdEmpresaC=0&ctl00$ContentPlaceHolder1$hidIdEmpresaVenta=-1&ctl00$ContentPlaceHolder1$hidIdOrgC=-1&ctl00$ContentPlaceHolder1$hidIdOrgV=-1&ctl00$ContentPlaceHolder1$hidNombreDemandante=-1&ctl00$ContentPlaceHolder1$hidNombreProducto=-1&ctl00$ContentPlaceHolder1$hidNombreProveedor=-1&ctl00$ContentPlaceHolder1$hidRangoMaximoFecha=&ctl00$ContentPlaceHolder1$hidRedir=&cuantia=0&departamento=&desdeFomulario=true&entidad=&estado=1&fechaFinal=&fechaInicial=&findEntidad=&municipio=0&numeroProceso=&objeto=92000000&paginaObjetivo=1&registrosXPagina=500&tipoProceso=
93000000,https://www.contratos.gov.co/consultas/resultadosConsulta.do?&ctl00$ContentPlaceHolder1$hidIDProducto=-1&ctl00$ContentPlaceHolder1$hidIDProductoNoIngresado=-1&ctl00$ContentPlaceHolder1$hidIDRubro=-1&ctl00$ContentPlaceHolder1$hidIdEmpresaC=0&ctl00$ContentPlaceHolder1$hidIdEmpresaVenta=-1&ctl00$ContentPlaceHolder1$hidIdOrgC=-1&ctl00$ContentPlaceHolder1$hidIdOrgV=-1&ctl00$ContentPlaceHolder1$hidNombreDemandante=-1&ctl00$ContentPlaceHolder1$hidNombreProducto=-1&ctl00$ContentPlaceHolder1$hidNombreProveedor=-1&ctl00$ContentPlaceHolder1$hidRangoMaximoFecha=&ctl00$ContentPlaceHolder1$hidRedir=&cuantia=0&departamento=&desdeFomulario=true&entidad=&estado=1&fechaFinal=&fechaInicial=&findEntidad=&municipio=0&numeroProceso=&objeto=93000000&paginaObjetivo=1&registrosXPagina=500&tipoProceso=
94000000,https://www.contratos.gov.co/consultas/resultadosConsulta.do?&ctl00$ContentPlaceHolder1$hidIDProducto=-1&ctl00$ContentPlaceHolder1$hidIDProductoNoIngresado=-1&ctl00$ContentPlaceHolder1$hidIDRubro=-1&ctl00$ContentPlaceHolder1$hidIdEmpresaC=0&ctl00$ContentPlaceHolder1$hidIdEmpresaVenta=-1&ctl00$ContentPlaceHolder1$hidIdOrgC=-1&ctl00$ContentPlaceHolder1$hidIdOrgV=-1&ctl00$ContentPlaceHolder1$hidNombreDemandante=-1&ctl00$ContentPlaceHolder1$hidNombreProducto=-1&ctl00$ContentPlaceHolder1$hidNombreProveedor=-1&ctl00$ContentPlaceHolder1$hidRangoMaximoFecha=&ctl00$ContentPlaceHolder1$hidRedir=&cuantia=0&departamento=&desdeFomulario=true&entidad=&estado=1&fechaFinal=&fechaInicial=&findEntidad=&municipio=0&numeroProceso=&objeto=94000000&paginaObjetivo=1&registrosXPagina=500&tipoProceso=
95000000,https://www.contratos.gov.co/consultas/resultadosConsulta.do?&ctl00$ContentPlaceHolder1$hidIDProducto=-1&ctl00$ContentPlaceHolder1$hidIDProductoNoIngresado=-1&ctl00$ContentPlaceHolder1$hidIDRubro=-1&ctl00$ContentPlaceHolder1$hidIdEmpresaC=0&ctl00$ContentPlaceHolder1$hidIdEmpresaVenta=-1&ctl00$ContentPlaceHolder1$hidIdOrgC=-1&ctl00$ContentPlaceHolder1$hidIdOrgV=-1&ctl00$ContentPlaceHolder1$hidNombreDemandante=-1&ctl00$ContentPlaceHolder1$hidNombreProducto=-1&ctl00$ContentPlaceHolder1$hidNombreProveedor=-1&ctl00$ContentPlaceHolder1$hidRangoMaximoFecha=&ctl00$ContentPlaceHolder1$hidRedir=&cuantia=0&departamento=&desdeFomulario=true&entidad=&estado=1&fechaFinal=&fechaInicial=&findEntidad=&municipio=0&numeroProceso=&objeto=95000000&paginaObjetivo=1&registrosXPagina=500&tipoProceso=
